…
## Example

To run `dupree` over a set of R files, you can use the `dupree()`,
`dupree_dir()` or `dupree_package()` functions. For example, to identify
duplication within all of the `.R` and `.Rmd` files for the `dupree`
package you could run the following:

``` r
## basic example code
library(dupree)

files <- dir(pattern = "*.R(md)*$", recursive = TRUE)

dupree(files)
#> # A tibble: 26 x 7
#>    file_a             file_b            block_a block_b line_a line_b score
#>    <chr>              <chr>               <int>   <int>  <int>  <int> <dbl>
#>  1 presentations/cle… presentations/cl…      30      31    353    371 0.930
#>  2 presentations/cle… presentations/cl…      25      26    281    294 0.4  
#>  3 tests/testthat/te… tests/testthat/t…       2       2      3      3 0.385
#>  4 tests/testthat/te… tests/testthat/t…       4       8      7     94 0.36 
#>  5 presentations/cle… presentations/cl…      26      29    294    343 0.321
#>  6 R/dupree_code_enu… tests/testthat/t…      11      10     14    118 0.308
#>  7 R/dupree_classes.R tests/testthat/t…      33       8     57     13 0.296
#>  8 R/dupree_classes.R tests/testthat/h…      61       7    117     14 0.256
#>  9 presentations/cle… R/dupree_code_en…      25      64    281    127 0.227
#> 10 R/dupree.R         R/dupree.R            110     127    123    159 0.225
#> # … with 16 more rows
```
…
